\BOOKMARK [1][-]{section.1}{Preface}{}% 1
\BOOKMARK [2][-]{subsection.1.1}{Terminology}{section.1}% 2
\BOOKMARK [2][-]{subsection.1.2}{Definitions}{section.1}% 3
\BOOKMARK [1][-]{section.2}{Usage}{}% 4
\BOOKMARK [2][-]{subsection.2.1}{Installation}{section.2}% 5
\BOOKMARK [2][-]{subsection.2.2}{Dependencies}{section.2}% 6
\BOOKMARK [1][-]{section.3}{Method\040overview}{}% 7
\BOOKMARK [1][-]{section.4}{Algorithm}{}% 8
\BOOKMARK [2][-]{subsection.4.1}{Initialisation}{section.4}% 9
\BOOKMARK [3][-]{subsubsection.4.1.1}{The\040unit\040cell}{subsection.4.1}% 10
\BOOKMARK [3][-]{subsubsection.4.1.2}{Rotations\040and\040orientations}{subsection.4.1}% 11
\BOOKMARK [3][-]{subsubsection.4.1.3}{Everything\040else}{subsection.4.1}% 12
\BOOKMARK [2][-]{subsection.4.2}{Intensity\040calculations}{section.4}% 13
\BOOKMARK [3][-]{subsubsection.4.2.1}{The\040Bragg\040peaks}{subsection.4.2}% 14
\BOOKMARK [3][-]{subsubsection.4.2.2}{The\040structure\040factor}{subsection.4.2}% 15
\BOOKMARK [3][-]{subsubsection.4.2.3}{The\040beamstop}{subsection.4.2}% 16
\BOOKMARK [2][-]{subsection.4.3}{Plotting\040the\040image}{section.4}% 17
\BOOKMARK [2][-]{subsection.4.4}{Drawing\040the\040schematic}{section.4}% 18
\BOOKMARK [2][-]{subsection.4.5}{Tidying\040up}{section.4}% 19
\BOOKMARK [1][-]{section.5}{Recommendations\040for\040future\040progress}{}% 20
\BOOKMARK [1][-]{section.6}{Postface}{}% 21
\BOOKMARK [1][-]{section.7}{Legal\040stuff}{}% 22
